[gd_scene load_steps=7 format=2]

[ext_resource path="res://Sprites/UI Sprites/gearButton3.png" type="Texture" id=1]
[ext_resource path="res://Sprites/UI Sprites/gearButton2.png" type="Texture" id=2]
[ext_resource path="res://Sprites/UI Sprites/gearButton1.png" type="Texture" id=3]
[ext_resource path="res://Sprites/UI Sprites/soundButton3.png" type="Texture" id=4]
[ext_resource path="res://Sprites/UI Sprites/soundButton2.png" type="Texture" id=5]
[ext_resource path="res://Sprites/UI Sprites/soundButton1.png" type="Texture" id=6]

[node name="GUI" type="Control"]
anchor_right = 1.0
anchor_bottom = 1.0

[node name="gearButton" type="TextureButton" parent="."]
margin_left = 960.0
margin_right = 992.0
margin_bottom = 32.0
rect_scale = Vector2( 2, 2 )
texture_normal = ExtResource( 3 )
texture_pressed = ExtResource( 1 )
texture_hover = ExtResource( 2 )

[node name="soundButton" type="TextureButton" parent="."]
margin_left = 896.0
margin_right = 928.0
margin_bottom = 32.0
rect_scale = Vector2( 2, 2 )
texture_normal = ExtResource( 6 )
texture_pressed = ExtResource( 4 )
texture_hover = ExtResource( 5 )
__meta__ = {
"_edit_use_anchors_": false
}
