[gd_scene load_steps=2 format=2]

[ext_resource path="res://Scripts/ViewerFPS.gd" type="Script" id=1]

[node name="ViewerFPS" type="Control"]
script = ExtResource( 1 )

[node name="CountFPS" type="Label" parent="."]
margin_right = 40.0
margin_bottom = 14.0
rect_scale = Vector2( 1.5, 1.5 )
custom_colors/font_color = Color( 0.980392, 0.988235, 0, 1 )
custom_colors/font_color_shadow = Color( 0, 0, 0, 1 )
text = "60"
