[gd_resource type="Animation" format=2]

[resource]
resource_name = "initialImage"
length = 4.0
tracks/0/type = "bezier"
tracks/0/path = NodePath("LogoStudio:scale:x")
tracks/0/interp = 1
tracks/0/loop_wrap = true
tracks/0/imported = false
tracks/0/enabled = true
tracks/0/keys = {
"points": PoolRealArray( 0.2, -0.25, 0, 0.25, 0, 0.35, -0.25, 0, 0.25, 0 ),
"times": PoolRealArray( 0, 4 )
}
tracks/1/type = "bezier"
tracks/1/path = NodePath("LogoStudio:scale:y")
tracks/1/interp = 1
tracks/1/loop_wrap = true
tracks/1/imported = false
tracks/1/enabled = true
tracks/1/keys = {
"points": PoolRealArray( 0.2, -0.25, 0, 0.25, 0, 0.35, -0.25, 0, 0.25, 0 ),
"times": PoolRealArray( 0, 4 )
}
tracks/2/type = "value"
tracks/2/path = NodePath("LogoStudio:modulate")
tracks/2/interp = 1
tracks/2/loop_wrap = true
tracks/2/imported = false
tracks/2/enabled = true
tracks/2/keys = {
"times": PoolRealArray( 0, 0.8, 2, 4 ),
"transitions": PoolRealArray( 1, 1, 1, 1 ),
"update": 0,
"values": [ Color( 1, 1, 1, 0 ), Color( 1, 1, 1, 1 ), Color( 1, 1, 1, 1 ), Color( 1, 1, 1, 0 ) ]
}
